EjC_Multiplicador2BitsCS/simulation/qsim/mult2bitscs.msim.vcd
$comment
	File created using the following command:
		vcd file mult2bitscs.msim.vcd -direction
$end
$date
	Fri Oct 31 14:18:33 2025
$end
$version
	ModelSim Version 10.1d
$end
$timescale
	1ps
$end
$scope module mult2bitscs_vlg_vec_tst $end
$var reg 1 ! A0 $end
$var reg 1 " A1 $end
$var reg 1 # B0 $end
$var reg 1 $ B1 $end
$var reg 1 % CLEAR $end
$var reg 1 & CLK $end
$var wire 1 ' BANDERA_CEROS $end
$var wire 1 ( BANDERA_SIGNO $end
$var wire 1 ) R0 $end
$var wire 1 * R1 $end
$var wire 1 + R2 $end
$var wire 1 , R3 $end
$var wire 1 - sampler $end
$scope module i1 $end
$var wire 1 . gnd $end
$var wire 1 / vcc $end
$var wire 1 0 unknown $end
$var tri1 1 1 devclrn $end
$var tri1 1 2 devpor $end
$var tri1 1 3 devoe $end
$var wire 1 4 inst22~q $end
$var wire 1 5 B1~input_o $end
$var wire 1 6 inst22~feeder_combout $end
$var wire 1 7 R3~output_o $end
$var wire 1 8 R2~output_o $end
$var wire 1 9 R1~output_o $end
$var wire 1 : R0~output_o $end
$var wire 1 ; BANDERA_CEROS~output_o $end
$var wire 1 < BANDERA_SIGNO~output_o $end
$var wire 1 = CLK~input_o $end
$var wire 1 > CLK~inputclkctrl_outclk $end
$var wire 1 ? A1~input_o $end
$var wire 1 @ inst19~feeder_combout $end
$var wire 1 A CLEAR~input_o $end
$var wire 1 B CLEAR~inputclkctrl_outclk $end
$var wire 1 C inst19~q $end
$var wire 1 D A0~input_o $end
$var wire 1 E inst20~feeder_combout $end
$var wire 1 F inst20~q $end
$var wire 1 G B0~input_o $end
$var wire 1 H inst21~feeder_combout $end
$var wire 1 I inst21~q $end
$var wire 1 J inst~combout $end
$var wire 1 K inst15~q $end
$var wire 1 L inst26|S~0_combout $end
$var wire 1 M inst16~q $end
$var wire 1 N inst27|S~combout $end
$var wire 1 O inst17~q $end
$var wire 1 P inst2~combout $end
$var wire 1 Q inst18~q $end
$var wire 1 R inst30~0_combout $end
$upscope $end
$upscope $end
$enddefinitions $end
#0
$dumpvars
0!
0"
0#
0$
x%
0&
1'
0(
0)
0*
0+
0,
x-
0.
1/
x0
11
12
13
04
05
06
07
08
09
0:
1;
0<
0=
0>
0?
0@
xA
xB
0C
0D
0E
0F
0G
0H
0I
0J
0K
0L
0M
0N
0O
0P
0Q
1R
$end
#10000
1&
1=
1>
0-
#20000
0&
0=
0>
1-
#30000
1&
1=
1>
0-
#40000
0&
0=
0>
1-
#50000
1#
1&
1G
1=
1>
0-
1H
#60000
0&
0=
0>
1-
#70000
1&
1=
1>
0-
#80000
0&
0=
0>
1-
#90000
1&
1=
1>
0-
#100000
1$
0#
0&
15
0G
0=
0>
1-
16
0H
#110000
1&
1=
1>
0-
#120000
0&
0=
0>
1-
#130000
1&
1=
1>
0-
#140000
0&
0=
0>
1-
#150000
1#
1&
1G
1=
1>
0-
1H
#160000
0&
0=
0>
1-
#170000
1&
1=
1>
0-
#180000
0&
0=
0>
1-
#190000
1&
1=
1>
0-
#200000
1!
0$
0#
0&
1D
05
0G
0=
0>
1-
1E
06
0H
#210000
1&
1=
1>
0-
#220000
0&
0=
0>
1-
#230000
1&
1=
1>
0-
#240000
0&
0=
0>
1-
#250000
1#
1&
1G
1=
1>
0-
1H
#260000
0&
0=
0>
1-
#270000
1&
1=
1>
0-
#280000
0&
0=
0>
1-
#290000
1&
1=
1>
0-
#300000
1$
0#
0&
15
0G
0=
0>
1-
16
0H
#310000
1&
1=
1>
0-
#320000
0&
0=
0>
1-
#330000
1&
1=
1>
0-
#340000
0&
0=
0>
1-
#350000
1#
1&
1G
1=
1>
0-
1H
#360000
0&
0=
0>
1-
#370000
1&
1=
1>
0-
#380000
0&
0=
0>
1-
#390000
1&
1=
1>
0-
#400000
1"
0!
0$
0#
0&
1?
0D
05
0G
0=
0>
1-
1@
0E
06
0H
#410000
1&
1=
1>
0-
#420000
0&
0=
0>
1-
#430000
1&
1=
1>
0-
#440000
0&
0=
0>
1-
#450000
1#
1&
1G
1=
1>
0-
1H
#460000
0&
0=
0>
1-
#470000
1&
1=
1>
0-
#480000
0&
0=
0>
1-
#490000
1&
1=
1>
0-
#500000
1$
0#
0&
15
0G
0=
0>
1-
16
0H
#510000
1&
1=
1>
0-
#520000
0&
0=
0>
1-
#530000
1&
1=
1>
0-
#540000
0&
0=
0>
1-
#550000
1#
1&
1G
1=
1>
0-
1H
#560000
0&
0=
0>
1-
#570000
1&
1=
1>
0-
#580000
0&
0=
0>
1-
#590000
1&
1=
1>
0-
#600000
1!
0$
0#
0&
1D
05
0G
0=
0>
1-
1E
06
0H
#610000
1&
1=
1>
0-
#620000
0&
0=
0>
1-
#630000
1&
1=
1>
0-
#640000
0&
0=
0>
1-
#650000
1#
1&
1G
1=
1>
0-
1H
#660000
0&
0=
0>
1-
#670000
1&
1=
1>
0-
#680000
0&
0=
0>
1-
#690000
1&
1=
1>
0-
#700000
1$
0#
0&
15
0G
0=
0>
1-
16
0H
#710000
1&
1=
1>
0-
#720000
0&
0=
0>
1-
#730000
1&
1=
1>
0-
#740000
0&
0=
0>
1-
#750000
1#
1&
1G
1=
1>
0-
1H
#760000
0&
0=
0>
1-
#770000
1&
1=
1>
0-
#780000
0&
0=
0>
1-
#790000
1&
1=
1>
0-
#800000
0"
0!
0$
0#
0&
0?
0D
05
0G
0=
0>
1-
0@
0E
06
0H
#810000
1&
1=
1>
0-
#820000
0&
0=
0>
1-
#830000
1&
1=
1>
0-
#840000
0&
0=
0>
1-
#850000
1&
1=
1>
0-
#860000
0&
0=
0>
1-
#870000
1&
1=
1>
0-
#880000
0&
0=
0>
1-
#890000
1&
1=
1>
0-
#900000
0&
0=
0>
1-
#910000
1&
1=
1>
0-
#920000
0&
0=
0>
1-
#930000
1&
1=
1>
0-
#940000
0&
0=
0>
1-
#950000
1&
1=
1>
0-
#960000
0&
0=
0>
1-
#970000
1&
1=
1>
0-
#980000
0&
0=
0>
1-
#990000
1&
1=
1>
0-
