EjC_Multiplicador2BitsCS/simulation/qsim/mult2bitscs.msim.vcd
$comment
	File created using the following command:
		vcd file mult2bitscs.msim.vcd -direction
$end
$date
	Wed Oct 22 23:31:25 2025
$end
$version
	ModelSim Version 10.1d
$end
$timescale
	1ps
$end
$scope module mult2bitscs_vlg_vec_tst $end
$var reg 1 ! A0 $end
$var reg 1 " A1 $end
$var reg 1 # B0 $end
$var reg 1 $ B1 $end
$var reg 1 % CLK $end
$var wire 1 & R0 $end
$var wire 1 ' R1 $end
$var wire 1 ( R2 $end
$var wire 1 ) R3 $end
$var wire 1 * sampler $end
$scope module i1 $end
$var wire 1 + gnd $end
$var wire 1 , vcc $end
$var wire 1 - unknown $end
$var tri1 1 . devclrn $end
$var tri1 1 / devpor $end
$var tri1 1 0 devoe $end
$var wire 1 1 R3~output_o $end
$var wire 1 2 R2~output_o $end
$var wire 1 3 R1~output_o $end
$var wire 1 4 R0~output_o $end
$var wire 1 5 CLK~input_o $end
$var wire 1 6 CLK~inputclkctrl_outclk $end
$var wire 1 7 A1~input_o $end
$var wire 1 8 inst19~q $end
$var wire 1 9 B1~input_o $end
$var wire 1 : inst22~feeder_combout $end
$var wire 1 ; inst22~q $end
$var wire 1 < inst|S~0_combout $end
$var wire 1 = inst15~q $end
$var wire 1 > A0~input_o $end
$var wire 1 ? inst20~feeder_combout $end
$var wire 1 @ inst20~q $end
$var wire 1 A B0~input_o $end
$var wire 1 B inst21~feeder_combout $end
$var wire 1 C inst21~q $end
$var wire 1 D inst26|S~0_combout $end
$var wire 1 E inst16~q $end
$var wire 1 F inst27|S~combout $end
$var wire 1 G inst17~q $end
$var wire 1 H inst2~combout $end
$var wire 1 I inst18~q $end
$upscope $end
$upscope $end
$enddefinitions $end
#0
$dumpvars
0!
1"
0#
1$
0%
0&
0'
0(
0)
x*
0+
1,
x-
1.
1/
10
01
02
03
04
05
06
17
08
19
1:
0;
0<
0=
0>
0?
0@
0A
0B
0C
0D
0E
0F
0G
0H
0I
$end
#5000
1%
15
16
0*
1;
18
1D
#10000
0%
05
06
1*
#15000
1%
15
16
0*
1E
12
1(
#20000
0%
05
06
1*
#25000
1%
15
16
0*
#30000
0%
05
06
1*
#35000
1%
15
16
0*
#40000
0"
0$
0%
07
09
05
06
1*
0:
#45000
1%
15
16
0*
0;
08
0D
#50000
0%
05
06
1*
#55000
1%
15
16
0*
0E
02
0(
#60000
1#
1"
0%
1A
17
05
06
1*
1B
#65000
1%
15
16
0*
1C
18
1F
1D
1<
#70000
0%
05
06
1*
#75000
1%
15
16
0*
1G
1E
1=
13
12
11
1'
1(
1)
#80000
0%
05
06
1*
#85000
1%
15
16
0*
#90000
0%
05
06
1*
#95000
1%
15
16
0*
#100000
0#
0"
0%
0A
07
05
06
1*
0B
#105000
1%
15
16
0*
0C
08
0F
0D
0<
#110000
0%
05
06
1*
#115000
1%
15
16
0*
0G
0E
0=
03
02
01
0'
0(
0)
#120000
1!
1#
1"
0%
1>
1A
17
05
06
1*
1?
1B
#125000
1%
15
16
0*
1C
1@
18
1H
1F
1D
1<
#130000
0%
05
06
1*
#135000
1%
15
16
0*
1I
1G
1E
1=
14
13
12
11
1&
1'
1(
1)
#140000
0%
05
06
1*
#145000
1%
15
16
0*
#150000
0%
05
06
1*
#155000
1%
15
16
0*
#160000
0!
0#
0"
0%
0>
0A
07
05
06
1*
0?
0B
#165000
1%
15
16
0*
0C
0@
08
0H
0F
0D
0<
#170000
0%
05
06
1*
#175000
1%
15
16
0*
0I
0G
0E
0=
04
03
02
01
0&
0'
0(
0)
#180000
0%
05
06
1*
#185000
1%
15
16
0*
#190000
0%
05
06
1*
#195000
1%
15
16
0*
#200000
0%
05
06
1*
#205000
1%
15
16
0*
#210000
0%
05
06
1*
#215000
1%
15
16
0*
#220000
0%
05
06
1*
#225000
1%
15
16
0*
#230000
0%
05
06
1*
#235000
1%
15
16
0*
#240000
0%
05
06
1*
#245000
1%
15
16
0*
#250000
0%
05
06
1*
#255000
1%
15
16
0*
#260000
0%
05
06
1*
#265000
1%
15
16
0*
#270000
0%
05
06
1*
#275000
1%
15
16
0*
#280000
0%
05
06
1*
#285000
1%
15
16
0*
#290000
0%
05
06
1*
#295000
1%
15
16
0*
#300000
0%
05
06
1*
#305000
1%
15
16
0*
#310000
0%
05
06
1*
#315000
1%
15
16
0*
#320000
0%
05
06
1*
#325000
1%
15
16
0*
#330000
0%
05
06
1*
#335000
1%
15
16
0*
#340000
0%
05
06
1*
#345000
1%
15
16
0*
#350000
0%
05
06
1*
#355000
1%
15
16
0*
#360000
0%
05
06
1*
#365000
1%
15
16
0*
#370000
0%
05
06
1*
#375000
1%
15
16
0*
#380000
0%
05
06
1*
#385000
1%
15
16
0*
#390000
0%
05
06
1*
#395000
1%
15
16
0*
#400000
0%
05
06
1*
#405000
1%
15
16
0*
#410000
0%
05
06
1*
#415000
1%
15
16
0*
#420000
0%
05
06
1*
#425000
1%
15
16
0*
#430000
0%
05
06
1*
#435000
1%
15
16
0*
#440000
0%
05
06
1*
#445000
1%
15
16
0*
#450000
0%
05
06
1*
#455000
1%
15
16
0*
#460000
0%
05
06
1*
#465000
1%
15
16
0*
#470000
0%
05
06
1*
#475000
1%
15
16
0*
#480000
0%
05
06
1*
#485000
1%
15
16
0*
#490000
0%
05
06
1*
#495000
1%
15
16
0*
#500000
0%
05
06
1*
#505000
1%
15
16
0*
#510000
0%
05
06
1*
#515000
1%
15
16
0*
#520000
0%
05
06
1*
#525000
1%
15
16
0*
#530000
0%
05
06
1*
#535000
1%
15
16
0*
#540000
0%
05
06
1*
#545000
1%
15
16
0*
#550000
0%
05
06
1*
#555000
1%
15
16
0*
#560000
0%
05
06
1*
#565000
1%
15
16
0*
#570000
0%
05
06
1*
#575000
1%
15
16
0*
#580000
0%
05
06
1*
#585000
1%
15
16
0*
#590000
0%
05
06
1*
#595000
1%
15
16
0*
#600000
0%
05
06
1*
#605000
1%
15
16
0*
#610000
0%
05
06
1*
#615000
1%
15
16
0*
#620000
0%
05
06
1*
#625000
1%
15
16
0*
#630000
0%
05
06
1*
#635000
1%
15
16
0*
#640000
0%
05
06
1*
#645000
1%
15
16
0*
#650000
0%
05
06
1*
#655000
1%
15
16
0*
#660000
0%
05
06
1*
#665000
1%
15
16
0*
#670000
0%
05
06
1*
#675000
1%
15
16
0*
#680000
0%
05
06
1*
#685000
1%
15
16
0*
#690000
0%
05
06
1*
#695000
1%
15
16
0*
#700000
0%
05
06
1*
#705000
1%
15
16
0*
#710000
0%
05
06
1*
#715000
1%
15
16
0*
#720000
0%
05
06
1*
#725000
1%
15
16
0*
#730000
0%
05
06
1*
#735000
1%
15
16
0*
#740000
0%
05
06
1*
#745000
1%
15
16
0*
#750000
0%
05
06
1*
#755000
1%
15
16
0*
#760000
0%
05
06
1*
#765000
1%
15
16
0*
#770000
0%
05
06
1*
#775000
1%
15
16
0*
#780000
0%
05
06
1*
#785000
1%
15
16
0*
#790000
0%
05
06
1*
#795000
1%
15
16
0*
#800000
0%
05
06
1*
#805000
1%
15
16
0*
#810000
0%
05
06
1*
#815000
1%
15
16
0*
#820000
0%
05
06
1*
#825000
1%
15
16
0*
#830000
0%
05
06
1*
#835000
1%
15
16
0*
#840000
0%
05
06
1*
#845000
1%
15
16
0*
#850000
0%
05
06
1*
#855000
1%
15
16
0*
#860000
0%
05
06
1*
#865000
1%
15
16
0*
#870000
0%
05
06
1*
#875000
1%
15
16
0*
#880000
0%
05
06
1*
#885000
1%
15
16
0*
#890000
0%
05
06
1*
#895000
1%
15
16
0*
#900000
0%
05
06
1*
#905000
1%
15
16
0*
#910000
0%
05
06
1*
#915000
1%
15
16
0*
#920000
0%
05
06
1*
#925000
1%
15
16
0*
#930000
0%
05
06
1*
#935000
1%
15
16
0*
#940000
0%
05
06
1*
#945000
1%
15
16
0*
#950000
0%
05
06
1*
#955000
1%
15
16
0*
#960000
0%
05
06
1*
#965000
1%
15
16
0*
#970000
0%
05
06
1*
#975000
1%
15
16
0*
#980000
0%
05
06
1*
#985000
1%
15
16
0*
#990000
0%
05
06
1*
#995000
1%
15
16
0*
