EjC_Multiplicador2BitsCS/simulation/qsim/mult2bitscs.msim.vcd
$comment
	File created using the following command:
		vcd file mult2bitscs.msim.vcd -direction
$end
$date
	Fri Oct 24 11:57:38 2025
$end
$version
	ModelSim Version 10.1d
$end
$timescale
	1ps
$end
$scope module mult2bitscs_vlg_vec_tst $end
$var reg 1 ! A0 $end
$var reg 1 " A1 $end
$var reg 1 # B0 $end
$var reg 1 $ B1 $end
$var reg 1 % CLK $end
$var wire 1 & BANDERA_CEROS $end
$var wire 1 ' BANDERA_SIGNO $end
$var wire 1 ( R0 $end
$var wire 1 ) R1 $end
$var wire 1 * R2 $end
$var wire 1 + R3 $end
$var wire 1 , sampler $end
$scope module i1 $end
$var wire 1 - gnd $end
$var wire 1 . vcc $end
$var wire 1 / unknown $end
$var tri1 1 0 devclrn $end
$var tri1 1 1 devpor $end
$var tri1 1 2 devoe $end
$var wire 1 3 R3~output_o $end
$var wire 1 4 R2~output_o $end
$var wire 1 5 R1~output_o $end
$var wire 1 6 R0~output_o $end
$var wire 1 7 BANDERA_CEROS~output_o $end
$var wire 1 8 BANDERA_SIGNO~output_o $end
$var wire 1 9 CLK~input_o $end
$var wire 1 : CLK~inputclkctrl_outclk $end
$var wire 1 ; A0~input_o $end
$var wire 1 < inst20~feeder_combout $end
$var wire 1 = inst20~q $end
$var wire 1 > A1~input_o $end
$var wire 1 ? inst19~q $end
$var wire 1 @ B1~input_o $end
$var wire 1 A inst22~feeder_combout $end
$var wire 1 B inst22~q $end
$var wire 1 C inst~combout $end
$var wire 1 D inst15~q $end
$var wire 1 E inst26|S~0_combout $end
$var wire 1 F inst16~q $end
$var wire 1 G B0~input_o $end
$var wire 1 H inst21~feeder_combout $end
$var wire 1 I inst21~q $end
$var wire 1 J inst27|S~combout $end
$var wire 1 K inst17~q $end
$var wire 1 L inst2~combout $end
$var wire 1 M inst18~q $end
$var wire 1 N inst30~0_combout $end
$upscope $end
$upscope $end
$enddefinitions $end
#0
$dumpvars
0!
0"
0#
0$
0%
1&
0'
0(
0)
0*
0+
x,
0-
1.
x/
10
11
12
03
04
05
06
17
08
09
0:
0;
0<
0=
0>
0?
0@
0A
0B
0C
0D
0E
0F
0G
0H
0I
0J
0K
0L
0M
1N
$end
#5000
1%
19
1:
0,
#10000
0%
09
0:
1,
#15000
1%
19
1:
0,
#20000
0%
09
0:
1,
#25000
1%
19
1:
0,
#30000
0%
09
0:
1,
#35000
1%
19
1:
0,
#40000
0%
09
0:
1,
#45000
1%
19
1:
0,
#50000
1#
0%
1G
09
0:
1,
1H
#55000
1%
19
1:
0,
1I
#60000
0%
09
0:
1,
#65000
1%
19
1:
0,
#70000
0%
09
0:
1,
#75000
1%
19
1:
0,
#80000
0%
09
0:
1,
#85000
1%
19
1:
0,
#90000
0%
09
0:
1,
#95000
1%
19
1:
0,
#100000
1$
0#
0%
1@
0G
09
0:
1,
1A
0H
#105000
1%
19
1:
0,
0I
1B
#110000
0%
09
0:
1,
#115000
1%
19
1:
0,
#120000
0%
09
0:
1,
#125000
1%
19
1:
0,
#130000
0%
09
0:
1,
#135000
1%
19
1:
0,
#140000
0%
09
0:
1,
#145000
1%
19
1:
0,
#150000
1#
0%
1G
09
0:
1,
1H
#155000
1%
19
1:
0,
1I
#160000
0%
09
0:
1,
#165000
1%
19
1:
0,
#170000
0%
09
0:
1,
#175000
1%
19
1:
0,
#180000
0%
09
0:
1,
#185000
1%
19
1:
0,
#190000
0%
09
0:
1,
#195000
1%
19
1:
0,
#200000
1!
0$
0#
0%
1;
0@
0G
09
0:
1,
1<
0A
0H
#205000
1%
19
1:
0,
0I
0B
1=
#210000
0%
09
0:
1,
#215000
1%
19
1:
0,
#220000
0%
09
0:
1,
#225000
1%
19
1:
0,
#230000
0%
09
0:
1,
#235000
1%
19
1:
0,
#240000
0%
09
0:
1,
#245000
1%
19
1:
0,
#250000
1#
0%
1G
09
0:
1,
1H
#255000
1%
19
1:
0,
1I
1L
#260000
0%
09
0:
1,
#265000
1%
19
1:
0,
1M
16
1(
0N
07
0&
#270000
0%
09
0:
1,
#275000
1%
19
1:
0,
#280000
0%
09
0:
1,
#285000
1%
19
1:
0,
#290000
0%
09
0:
1,
#295000
1%
19
1:
0,
#300000
1$
0#
0%
1@
0G
09
0:
1,
1A
0H
#305000
1%
19
1:
0,
0I
1B
0L
1J
1E
1C
#310000
0%
09
0:
1,
#315000
1%
19
1:
0,
0M
1K
1F
1D
06
15
14
18
13
0(
1)
1*
1'
1+
#320000
0%
09
0:
1,
#325000
1%
19
1:
0,
#330000
0%
09
0:
1,
#335000
1%
19
1:
0,
#340000
0%
09
0:
1,
#345000
1%
19
1:
0,
#350000
1#
0%
1G
09
0:
1,
1H
#355000
1%
19
1:
0,
1I
1L
#360000
0%
09
0:
1,
#365000
1%
19
1:
0,
1M
16
1(
#370000
0%
09
0:
1,
#375000
1%
19
1:
0,
#380000
0%
09
0:
1,
#385000
1%
19
1:
0,
#390000
0%
09
0:
1,
#395000
1%
19
1:
0,
#400000
1"
0!
0$
0#
0%
1>
0;
0@
0G
09
0:
1,
0<
0A
0H
#405000
1%
19
1:
0,
0I
0B
1?
0=
0L
0J
0E
0C
#410000
0%
09
0:
1,
#415000
1%
19
1:
0,
0M
0K
0F
0D
06
05
04
08
03
0(
0)
0*
0'
0+
1N
17
1&
#420000
0%
09
0:
1,
#425000
1%
19
1:
0,
#430000
0%
09
0:
1,
#435000
1%
19
1:
0,
#440000
0%
09
0:
1,
#445000
1%
19
1:
0,
#450000
1#
0%
1G
09
0:
1,
1H
#455000
1%
19
1:
0,
1I
1J
1E
1C
#460000
0%
09
0:
1,
#465000
1%
19
1:
0,
1K
1F
1D
15
14
18
13
1)
1*
1'
1+
0N
07
0&
#470000
0%
09
0:
1,
#475000
1%
19
1:
0,
#480000
0%
09
0:
1,
#485000
1%
19
1:
0,
#490000
0%
09
0:
1,
#495000
1%
19
1:
0,
#500000
1$
0#
0%
1@
0G
09
0:
1,
1A
0H
#505000
1%
19
1:
0,
0I
1B
0J
0C
#510000
0%
09
0:
1,
#515000
1%
19
1:
0,
0K
0D
05
08
03
0)
0'
0+
#520000
0%
09
0:
1,
#525000
1%
19
1:
0,
#530000
0%
09
0:
1,
#535000
1%
19
1:
0,
#540000
0%
09
0:
1,
#545000
1%
19
1:
0,
#550000
1#
0%
1G
09
0:
1,
1H
#555000
1%
19
1:
0,
1I
1J
0E
#560000
0%
09
0:
1,
#565000
1%
19
1:
0,
1K
0F
15
04
1)
0*
#570000
0%
09
0:
1,
#575000
1%
19
1:
0,
#580000
0%
09
0:
1,
#585000
1%
19
1:
0,
#590000
0%
09
0:
1,
#595000
1%
19
1:
0,
#600000
1!
0$
0#
0%
1;
0@
0G
09
0:
1,
1<
0A
0H
#605000
1%
19
1:
0,
0I
0B
1=
0J
#610000
0%
09
0:
1,
#615000
1%
19
1:
0,
0K
05
0)
1N
17
1&
#620000
0%
09
0:
1,
#625000
1%
19
1:
0,
#630000
0%
09
0:
1,
#635000
1%
19
1:
0,
#640000
0%
09
0:
1,
#645000
1%
19
1:
0,
#650000
1#
0%
1G
09
0:
1,
1H
#655000
1%
19
1:
0,
1I
1L
1J
1E
1C
#660000
0%
09
0:
1,
#665000
1%
19
1:
0,
1M
1K
1F
1D
16
15
14
18
13
1(
1)
1*
1'
1+
0N
07
0&
#670000
0%
09
0:
1,
#675000
1%
19
1:
0,
#680000
0%
09
0:
1,
#685000
1%
19
1:
0,
#690000
0%
09
0:
1,
#695000
1%
19
1:
0,
#700000
1$
0#
0%
1@
0G
09
0:
1,
1A
0H
#705000
1%
19
1:
0,
0I
1B
0L
0E
0C
#710000
0%
09
0:
1,
#715000
1%
19
1:
0,
0M
0F
0D
06
04
08
03
0(
0*
0'
0+
#720000
0%
09
0:
1,
#725000
1%
19
1:
0,
#730000
0%
09
0:
1,
#735000
1%
19
1:
0,
#740000
0%
09
0:
1,
#745000
1%
19
1:
0,
#750000
1#
0%
1G
09
0:
1,
1H
#755000
1%
19
1:
0,
1I
1L
0J
#760000
0%
09
0:
1,
#765000
1%
19
1:
0,
1M
0K
16
05
1(
0)
#770000
0%
09
0:
1,
#775000
1%
19
1:
0,
#780000
0%
09
0:
1,
#785000
1%
19
1:
0,
#790000
0%
09
0:
1,
#795000
1%
19
1:
0,
#800000
0"
0!
0$
0#
0%
0>
0;
0@
0G
09
0:
1,
0<
0A
0H
#805000
1%
19
1:
0,
0I
0B
0?
0=
0L
#810000
0%
09
0:
1,
#815000
1%
19
1:
0,
0M
06
0(
1N
17
1&
#820000
0%
09
0:
1,
#825000
1%
19
1:
0,
#830000
0%
09
0:
1,
#835000
1%
19
1:
0,
#840000
0%
09
0:
1,
#845000
1%
19
1:
0,
#850000
0%
09
0:
1,
#855000
1%
19
1:
0,
#860000
0%
09
0:
1,
#865000
1%
19
1:
0,
#870000
0%
09
0:
1,
#875000
1%
19
1:
0,
#880000
0%
09
0:
1,
#885000
1%
19
1:
0,
#890000
0%
09
0:
1,
#895000
1%
19
1:
0,
#900000
0%
09
0:
1,
#905000
1%
19
1:
0,
#910000
0%
09
0:
1,
#915000
1%
19
1:
0,
#920000
0%
09
0:
1,
#925000
1%
19
1:
0,
#930000
0%
09
0:
1,
#935000
1%
19
1:
0,
#940000
0%
09
0:
1,
#945000
1%
19
1:
0,
#950000
0%
09
0:
1,
#955000
1%
19
1:
0,
#960000
0%
09
0:
1,
#965000
1%
19
1:
0,
#970000
0%
09
0:
1,
#975000
1%
19
1:
0,
#980000
0%
09
0:
1,
#985000
1%
19
1:
0,
#990000
0%
09
0:
1,
#995000
1%
19
1:
0,
