EjD_MultiplicadorModuloCa2/simulation/qsim/multModuloCa2.msim.vcd
$comment
	File created using the following command:
		vcd file multModuloCa2.msim.vcd -direction
$end
$date
	Sat Oct 25 18:42:45 2025
$end
$version
	ModelSim Version 10.1d
$end
$timescale
	1ps
$end
$scope module multModuloCa2_vlg_vec_tst $end
$var reg 2 ! A [1:0] $end
$var reg 2 " B [1:0] $end
$var wire 1 # RC [3] $end
$var wire 1 $ RC [2] $end
$var wire 1 % RC [1] $end
$var wire 1 & RC [0] $end
$var wire 1 ' RM [3] $end
$var wire 1 ( RM [2] $end
$var wire 1 ) RM [1] $end
$var wire 1 * RM [0] $end
$var wire 1 + sampler $end
$scope module i1 $end
$var wire 1 , gnd $end
$var wire 1 - vcc $end
$var wire 1 . unknown $end
$var tri1 1 / devclrn $end
$var tri1 1 0 devpor $end
$var tri1 1 1 devoe $end
$var wire 1 2 RM[0]~output_o $end
$var wire 1 3 RM[1]~output_o $end
$var wire 1 4 RM[2]~output_o $end
$var wire 1 5 RM[3]~output_o $end
$var wire 1 6 RC[0]~output_o $end
$var wire 1 7 RC[1]~output_o $end
$var wire 1 8 RC[2]~output_o $end
$var wire 1 9 RC[3]~output_o $end
$var wire 1 : A[0]~input_o $end
$var wire 1 ; B[0]~input_o $end
$var wire 1 < Mult0|mult_core|result[0]~0_combout $end
$var wire 1 = B[1]~input_o $end
$var wire 1 > A[1]~input_o $end
$var wire 1 ? Mult0|mult_core|result[1]~1_combout $end
$var wire 1 @ Mult0|mult_core|result[2]~2_combout $end
$var wire 1 A Mult0|mult_core|result[3]~3_combout $end
$var wire 1 B Mult1|mult_core|result[2]~0_combout $end
$var wire 1 C Mult1|mult_core|result[3]~1_combout $end
$upscope $end
$upscope $end
$enddefinitions $end
#0
$dumpvars
b0 !
b0 "
0&
0%
0$
0#
0*
0)
0(
0'
x+
0,
1-
x.
1/
10
11
02
03
04
05
06
07
08
09
0:
0;
0<
0=
0>
0?
0@
0A
0B
0C
$end
#62500
b1 "
1;
0+
#125000
b11 "
b10 "
0;
1=
1+
#187500
b11 "
1;
0+
#250000
b1 !
b1 "
b0 "
0;
0=
1:
1+
#312500
b1 "
1;
0+
1<
16
12
1&
1*
#375000
b11 "
b10 "
0;
1=
1+
1C
1B
1?
0<
19
18
17
13
06
02
1#
1$
1%
1)
0&
0*
#437500
b11 "
1;
0+
1<
16
12
1&
1*
#500000
b11 !
b10 !
b1 "
b0 "
0;
0=
0:
1>
1+
0C
0B
0?
0<
09
08
07
03
06
02
0#
0$
0%
0)
0&
0*
#562500
b1 "
1;
0+
1C
1B
1?
19
18
17
13
1#
1$
1%
1)
#625000
b11 "
b10 "
0;
1=
1+
0C
1@
0?
09
14
07
03
0#
1(
0%
0)
#687500
b11 "
1;
0+
0B
1?
08
17
13
0$
1%
1)
#750000
b11 !
b1 "
b0 "
0;
0=
1:
1+
0@
0?
04
07
03
0(
0%
0)
#812500
b1 "
1;
0+
1C
1B
1?
1<
19
18
17
13
16
12
1#
1$
1%
1)
1&
1*
#875000
b11 "
b10 "
0;
1=
1+
0C
0B
1@
0<
09
08
14
06
02
0#
0$
1(
0&
0*
#937500
b11 "
1;
0+
1A
0@
0?
1<
15
04
07
03
16
12
1'
0(
0%
0)
1&
1*
