EjE_MaquinaDeEstados/simulation/qsim/maquinaestado.msim.vcd
$comment
	File created using the following command:
		vcd file maquinaestado.msim.vcd -direction
$end
$date
	Sat Oct 25 21:15:28 2025
$end
$version
	ModelSim Version 10.1d
$end
$timescale
	1ps
$end
$scope module maquinaestado_vlg_vec_tst $end
$var reg 1 ! clock $end
$var reg 1 " reset $end
$var reg 1 # x $end
$var wire 1 $ z0 $end
$var wire 1 % z1 $end
$var wire 1 & z2 $end
$var wire 1 ' z3 $end
$var wire 1 ( sampler $end
$scope module i1 $end
$var wire 1 ) gnd $end
$var wire 1 * vcc $end
$var wire 1 + unknown $end
$var tri1 1 , devclrn $end
$var tri1 1 - devpor $end
$var tri1 1 . devoe $end
$var wire 1 / clock~input_o $end
$var wire 1 0 clock~inputclkctrl_outclk $end
$var wire 1 1 z0~output_o $end
$var wire 1 2 z1~output_o $end
$var wire 1 3 z2~output_o $end
$var wire 1 4 z3~output_o $end
$var wire 1 5 reset~input_o $end
$var wire 1 6 x~input_o $end
$var wire 1 7 reg_fstate.G~0_combout $end
$var wire 1 8 fstate.G~q $end
$var wire 1 9 reg_fstate.A~0_combout $end
$var wire 1 : fstate.A~q $end
$var wire 1 ; reg_fstate.D~0_combout $end
$var wire 1 < fstate.D~q $end
$var wire 1 = reg_fstate.E~0_combout $end
$var wire 1 > fstate.E~q $end
$var wire 1 ? reg_fstate.C~0_combout $end
$var wire 1 @ fstate.C~q $end
$var wire 1 A reg_fstate.B~0_combout $end
$var wire 1 B fstate.B~q $end
$var wire 1 C reg_fstate.F~0_combout $end
$var wire 1 D fstate.F~q $end
$var wire 1 E z0~0_combout $end
$var wire 1 F z1~0_combout $end
$var wire 1 G z2~0_combout $end
$var wire 1 H z3~0_combout $end
$upscope $end
$upscope $end
$enddefinitions $end
#0
$dumpvars
0!
0"
1#
0$
0%
0&
0'
x(
0)
1*
x+
1,
1-
1.
0/
00
01
02
03
04
05
16
07
08
19
0:
1;
0<
0=
0>
0?
0@
0A
0B
0C
0D
0E
0F
0G
1H
$end
#25000
1!
1/
10
0(
1<
1:
1=
0H
0;
14
1'
#40000
0#
06
1(
#50000
0!
0/
00
0(
#75000
1!
1/
10
1(
1>
0<
1A
0=
1G
13
1&
#100000
0!
0/
00
0(
#125000
1!
1/
10
1(
1B
0>
1C
0A
1F
1E
12
11
1%
1$
#150000
0!
0/
00
0(
#170000
1#
16
1(
0C
17
#175000
1!
1/
10
0(
0B
18
07
09
0E
01
0$
#200000
0#
0!
06
0/
00
1(
#225000
1!
1/
10
0(
0:
08
1H
1?
19
0G
0F
04
03
02
0'
0&
0%
#250000
0!
0/
00
1(
#275000
1!
1/
10
0(
1@
1:
1A
0?
1F
1G
12
13
1%
1&
#300000
0!
0/
00
1(
#325000
1!
1/
10
0(
1B
0@
1C
0H
0A
1E
14
11
1'
1$
#350000
0!
0/
00
1(
#375000
1!
1/
10
0(
1D
0B
09
0C
0G
0F
03
02
0&
0%
#400000
0!
0/
00
1(
#425000
1!
1/
10
0(
0D
0:
19
1H
1?
0E
04
01
0'
0$
#430000
1#
16
1(
0?
1;
#450000
0!
0/
00
0(
#470000
0#
06
1(
1?
0;
#475000
1!
1/
10
0(
1@
1:
1A
0?
1F
1G
12
13
1%
1&
#500000
0!
0/
00
1(
#525000
1!
1/
10
0(
1B
0@
1C
0H
0A
1E
14
11
1'
1$
#550000
0!
0/
00
1(
#575000
1!
1/
10
0(
1D
0B
09
0C
0G
0F
03
02
0&
0%
#600000
0!
0/
00
1(
#625000
1!
1/
10
0(
0D
0:
19
1H
1?
0E
04
01
0'
0$
#650000
0!
0/
00
1(
#675000
1!
1/
10
0(
1@
1:
1A
0?
1F
1G
12
13
1%
1&
#700000
0!
0/
00
1(
#725000
1!
1/
10
0(
1B
0@
1C
0H
0A
1E
14
11
1'
1$
#750000
0!
0/
00
1(
#775000
1!
1/
10
0(
1D
0B
09
0C
0G
0F
03
02
0&
0%
#800000
0!
0/
00
1(
#825000
1!
1/
10
0(
0D
0:
19
1H
1?
0E
04
01
0'
0$
#850000
0!
0/
00
1(
#875000
1!
1/
10
0(
1@
1:
1A
0?
1F
1G
12
13
1%
1&
#900000
0!
0/
00
1(
#925000
1!
1/
10
0(
1B
0@
1C
0H
0A
1E
14
11
1'
1$
#950000
0!
0/
00
1(
#975000
1!
1/
10
0(
1D
0B
09
0C
0G
0F
03
02
0&
0%
